<?xml version="1.0" encoding="utf-8"?>
<!-- Generator: Adobe Illustrator 17.0.0, SVG Export Plug-In . SVG Version: 6.00 Build 0)  -->
<!DOCTYPE svg PUBLIC "-//W3C//DTD SVG 1.1//EN" "http://www.w3.org/Graphics/SVG/1.1/DTD/svg11.dtd">
<svg version="1.1" id="Layer_1" xmlns="http://www.w3.org/2000/svg" xmlns:xlink="http://www.w3.org/1999/xlink" x="0px" y="0px"
	 width="17px" height="17px" viewBox="0 0 17 17" enable-background="new 0 0 17 17" xml:space="preserve">
<g>
	<path fill="#FFFFFF" stroke="#FFFFFF" stroke-width="0.5" stroke-miterlimit="10" d="M8.5,4.547c-0.838,0-1.65,0.131-2.41,0.377
		v1.624c0,0.204-0.12,0.387-0.293,0.471c-0.513,0.256-0.98,0.586-1.393,0.969C4.309,8.084,4.178,8.136,4.037,8.136
		c-0.147,0-0.277-0.057-0.372-0.152l-1.3-1.3c-0.094-0.089-0.152-0.22-0.152-0.367c0-0.147,0.057-0.277,0.152-0.372
		C3.964,4.432,6.121,3.5,8.5,3.5s4.536,0.933,6.135,2.446c0.094,0.094,0.152,0.226,0.152,0.372c0,0.146-0.057,0.277-0.152,0.372
		l-1.3,1.3c-0.094,0.094-0.226,0.152-0.372,0.152c-0.141,0-0.273-0.057-0.367-0.147c-0.414-0.387-0.886-0.713-1.399-0.969
		c-0.173-0.084-0.293-0.262-0.293-0.471V4.93C10.15,4.679,9.338,4.547,8.5,4.547z"/>
	<polygon fill="#FFFFFF" stroke="#FFFFFF" stroke-width="0.5" stroke-miterlimit="10" points="9.286,10.365 9.286,7.999 
		7.714,7.999 7.714,10.365 5.357,10.365 8.5,13.5 11.643,10.365 	"/>
</g>
</svg>
