<?xml version="1.0" encoding="utf-8"?>
<!-- Generator: Adobe Illustrator 17.0.0, SVG Export Plug-In . SVG Version: 6.00 Build 0)  -->
<!DOCTYPE svg PUBLIC "-//W3C//DTD SVG 1.1//EN" "http://www.w3.org/Graphics/SVG/1.1/DTD/svg11.dtd">
<svg version="1.1" id="Layer_1" xmlns="http://www.w3.org/2000/svg" xmlns:xlink="http://www.w3.org/1999/xlink" x="0px" y="0px"
	 width="17px" height="17px" viewBox="0 0 17 17" enable-background="new 0 0 17 17" xml:space="preserve">
<path fill="#FFFFFF" d="M8.495,13c-2.49,0-4.5-2.01-4.5-4.5S6.005,4,8.495,4c1.24,0,2.36,0.52,3.17,1.33L9.495,7.5h5v-5l-1.76,1.76
	c-1.09-1.08-2.58-1.76-4.24-1.76c-3.31,0-5.99,2.69-5.99,6s2.68,6,5.99,6c2.97,0,5.43-2.16,5.9-5h-1.52
	C12.415,11.5,10.635,13,8.495,13z"/>
</svg>
